Interactive Visualization on GoT x Xena (IMDB)
…
episodes <- left_join(episodes, sumario_simples,
                      by = c("series_name", "season")) %>% 
    group_by(series_name, season) %>%
    mutate(middle_eps = (season_ep > p20) &
               (season_ep < p80)) %>% 
    ungroup()
episodes %>% 
    select(series_name, series_ep, middle_eps)

## # A tibble: 194 x 3
##    series_name               series_ep middle_eps
##    <chr>                         <dbl> <lgl>     
##  1 Xena a Princesa Guerreira         1 FALSE     
##  2 Xena a Princesa Guerreira         2 FALSE     
##  3 Xena a Princesa Guerreira         3 FALSE     
##  4 Xena a Princesa Guerreira         4 FALSE     
##  5 Xena a Princesa Guerreira         5 FALSE     
##  6 Xena a Princesa Guerreira         6 TRUE      
##  7 Xena a Princesa Guerreira         7 TRUE      
##  8 Xena a Princesa Guerreira         8 TRUE      
##  9 Xena a Princesa Guerreira         9 TRUE      
## 10 Xena a Princesa Guerreira        10 TRUE      
## # ... with 184 more rows
…
