EDA Game of Thrones (GOT) and Xena the Warrior Princess
…
episodes <- left_join(episodes, sumario_simples,
                      by = c("series_name", "season")) %>% 
    group_by(series_name, season) %>%
    mutate(middle_eps = (season_ep > p20) &
               (season_ep < p80)) %>% 
    ungroup()
episodes

## # A tibble: 194 x 25
##    series_name episode series_ep season season_ep url   user_rating
##    <chr>       <chr>       <dbl> <chr>      <dbl> <chr>       <dbl>
##  1 Xena a Pri… Sins o…         1 1              1 http…         7.9
##  2 Xena a Pri… Chario…         2 1              2 http…         7.4
##  3 Xena a Pri… Dreamw…         3 1              3 http…         7.7
##  4 Xena a Pri… Cradle…         4 1              4 http…         7.4
##  5 Xena a Pri… The Pa…         5 1              5 http…         7.5
##  6 Xena a Pri… The Re…         6 1              6 http…         7.7
##  7 Xena a Pri… The Ti…         7 1              7 http…         7.5
##  8 Xena a Pri… Promet…         8 1              8 http…         8  
##  9 Xena a Pri… Death …         9 1              9 http…         7.8
## 10 Xena a Pri… Hooves…        10 1             10 http…         7.6
## # ... with 184 more rows, and 18 more variables: user_votes <dbl>,
## #   r1 <dbl>, r2 <dbl>, r3 <dbl>, r4 <dbl>, r5 <dbl>, r6 <dbl>, r7 <dbl>,
## #   r8 <dbl>, r9 <dbl>, r10 <dbl>, rank_odiados <int>, rank_amados <int>,
## #   amado_odiado <int>, n <int>, p20 <dbl>, p80 <dbl>, middle_eps <lgl>
…
