Classification of candidates in Brazilian elections
…
data %>%
  map_df(function(x) sum(is.na(x))) %>%
  gather(feature, num_nulls) %>%
  arrange(desc(num_nulls))

## # A tibble: 24 x 2
##    feature                               num_nulls
##    <chr>                                     <int>
##  1 ano                                           0
##  2 sequencial_candidato                          0
##  3 nome                                          0
##  4 uf                                            0
##  5 partido                                       0
##  6 quantidade_doacoes                            0
##  7 quantidade_doadores                           0
##  8 total_receita                                 0
##  9 media_receita                                 0
## 10 recursos_de_outros_candidatos.comites         0
## # … with 14 more rows
…
